spotify_notes
…
df |>
  filter(album_artist_name %in% top_40_artist) |>
  # get number of albums by each artist
  group_by(album_artist_name) |>
  summarise(
    n = n(),
    n_albums = n_distinct(album_album_name),
    n_songs = n_distinct(track_name)
    ) |>
  arrange(desc(n_albums)) 

# A tibble: 40 × 4
   album_artist_name     n n_albums n_songs
   <chr>             <int>    <int>   <int>
 1 Bruce Springsteen  1935       58     551
 2 Frank Zappa         146       49     101
 3 Buckethead          154       40      72
 4 Tom Waits          3215       40     460
 5 Iron Maiden         999       32     163
 6 Modest Mouse       1544       25     174
 7 Frank Turner        179       24      57
 8 The Wonder Years    839       24     109
 9 Dream Theater       577       21     127
10 Gang of Youths      733       21      56
# ℹ 30 more rows
…
